<?xml version="1.0" encoding="utf-8"?>
<!-- Generator: Adobe Illustrator 16.0.4, SVG Export Plug-In . SVG Version: 6.00 Build 0)  -->
<!DOCTYPE svg PUBLIC "-//W3C//DTD SVG 1.1//EN" "http://www.w3.org/Graphics/SVG/1.1/DTD/svg11.dtd">
<svg version="1.1" id="Layer_1" xmlns="http://www.w3.org/2000/svg" xmlns:xlink="http://www.w3.org/1999/xlink" x="0px" y="0px"
	 width="9.3px" height="8px" viewBox="16.85 17.5 9.3 8" enable-background="new 16.85 17.5 9.3 8" xml:space="preserve">
<g display="none">
	<rect x="-5.375" y="-50.166" display="inline" width="438.6" height="217.866"/>
</g>
<g display="none">
	<g display="inline">
		<polygon stroke="#414753" stroke-miterlimit="10" points="17.029,31.604 5.06,20.34 9.604,15.569 16.496,22.056 32.895,2.772 
			37.941,7.013 		"/>
	</g>
</g>
<g display="none">
	<g display="inline">
		<path d="M31.979,11.455L27.95,8.158l-10.361,11.87l-4.342-3.98L9.619,19.76l8.393,7.693L31.979,11.455z M11.164,19.718
			l2.125-2.173l4.386,4.021L28.076,9.649l2.363,1.935L17.927,25.917L11.164,19.718z"/>
		<path d="M21.5,34.4c9.5,0,17.2-7.701,17.2-17.2C38.7,7.7,31,0,21.5,0S4.3,7.7,4.3,17.2C4.3,26.699,12,34.4,21.5,34.4z M21.5,1.075
			c8.891,0,16.125,7.233,16.125,16.125S30.391,33.325,21.5,33.325c-8.891,0-16.125-7.233-16.125-16.125S12.609,1.075,21.5,1.075z"/>
	</g>
</g>
<g display="none">
	<g display="inline">
		<path d="M31.979,11.455L27.95,8.158l-10.361,11.87l-4.342-3.98L9.619,19.76l8.393,7.693L31.979,11.455z M11.164,19.718
			l2.125-2.173l4.386,4.021L28.076,9.649l2.363,1.935L17.927,25.917L11.164,19.718z"/>
		<path d="M38.7,0H4.3v34.4h34.4V0z M37.625,33.325H5.375V1.075h32.25V33.325z"/>
	</g>
</g>
<polygon fill="#A8B7B6" points="24.6,17.5 20.124,22.627 18.246,20.905 16.843,22.341 20.288,25.5 26.157,18.776 "/>
<g display="none">
	<g display="inline">
		<polygon stroke="#414753" stroke-width="0.5" stroke-miterlimit="10" points="17.969,26.685 10.391,19.738 13.268,16.796 
			17.631,20.796 28.014,8.903 31.209,11.52 		"/>
	</g>
	<g display="inline">
		<path d="M38.162,0.538v33.325H4.837V0.538H38.162 M38.7,0H4.3v34.4h34.4V0L38.7,0z"/>
	</g>
</g>
<g display="none">
	<g display="inline">
		<g>
			<path d="M17.438,31.759c-3.126-2.942-6.252-5.886-9.378-8.828c-0.701-0.659-1.463-1.289-2.118-1.994
				c-0.575-0.619-0.483-0.294-0.369-0.664c0.251-0.815,1.851-1.945,2.439-2.562c0.647-0.679,1.294-1.36,1.941-2.039
				c-0.328-0.009-0.656-0.017-0.984-0.027c2.329,2.192,4.657,4.384,6.986,6.576c0.189,0.178,0.798,0.246,0.984,0.027
				c5.54-6.517,11.081-13.033,16.621-19.55c-0.328-0.009-0.655-0.017-0.983-0.027c1.414,1.188,2.826,2.375,4.24,3.563
				c0.9,0.757,0.973,0.486,0.139,1.387c-2.382,2.57-4.562,5.364-6.832,8.034c-4.557,5.359-9.113,10.718-13.67,16.077
				c-0.181,0.213,0.815,0.442,1.024,0.195c7.065-8.311,14.132-16.62,21.198-24.931c0.051-0.059,0.008-0.129-0.041-0.17
				c-1.705-1.433-3.411-2.867-5.116-4.3c-0.2-0.168-0.791-0.252-0.983-0.027c-5.541,6.519-11.081,13.036-16.622,19.552
				c0.328,0.008,0.656,0.018,0.983,0.027c-2.329-2.192-4.657-4.384-6.986-6.578c-0.198-0.186-0.784-0.235-0.984-0.027
				c-1.535,1.613-3.07,3.225-4.605,4.837c-0.055,0.058-0.002,0.129,0.041,0.17c4.044,3.806,8.088,7.613,12.132,11.419
				C16.703,32.096,17.733,32.036,17.438,31.759z"/>
		</g>
	</g>
</g>
<g display="none">
	<polygon display="inline" fill="none" stroke="#000000" stroke-width="2" stroke-miterlimit="10" points="17.238,30.853 
		5.824,20.167 10.158,15.641 16.729,21.794 32.367,3.501 37.182,7.525 	"/>
</g>
<g display="none">
	<polygon display="inline" stroke="#414753" stroke-width="0.5" stroke-miterlimit="10" points="16.926,31.95 4.681,20.421 
		9.33,15.537 16.38,22.178 33.157,2.438 38.32,6.779 	"/>
</g>
<g display="none">
	<polygon display="inline" points="38.7,6.559 33.42,2.121 16.264,22.295 9.054,15.509 4.3,20.5 16.822,32.283 	"/>
</g>
</svg>
