<svg xmlns="http://www.w3.org/2000/svg" width="11.32" height="11.312" viewBox="0 0 11.32 11.312">
  <defs>
    <style>
      .cls-1 {
        fill: #fff;
        fill-rule: evenodd;
      }
    </style>
  </defs>
  <path id="Rectangle_4_copy_2" data-name="Rectangle 4 copy 2" class="cls-1" d="M3636.66,697.242l-1.42,1.415-4.24-4.243-4.24,4.243-1.42-1.415,4.25-4.242-4.25-4.243,1.42-1.414,4.24,4.243,4.24-4.243,1.42,1.414L3632.41,693Z" transform="translate(-3625.34 -687.344)"/>
</svg>
