<svg xmlns="http://www.w3.org/2000/svg" xmlns:xlink="http://www.w3.org/1999/xlink" preserveAspectRatio="xMidYMid" width="20" height="17" viewBox="0 0 20 17">
  <defs>
    <style>
      .cls-1 {
        fill: #332f2e;
        fill-rule: evenodd;
      }
    </style>
  </defs>
  <path d="M-0.000,17.000 L-0.000,15.000 L20.000,15.000 L20.000,17.000 L-0.000,17.000 ZM3.000,8.000 L9.000,8.000 L9.000,-0.000 L11.000,-0.000 L11.000,8.000 L17.000,8.000 L10.000,14.000 L3.000,8.000 Z" class="cls-1"/>
</svg>
