<svg xmlns="http://www.w3.org/2000/svg" xmlns:xlink="http://www.w3.org/1999/xlink" preserveAspectRatio="xMidYMid" width="16" height="9" viewBox="0 0 16 9">
  <defs>
    <style>
      .cls-1 {
        fill: #fff;
        fill-rule: evenodd;
      }
    </style>
  </defs>
  <path d="M1.576,8.993 L0.003,7.516 L8.005,-0.004 L16.001,7.516 L14.429,8.993 L8.003,2.951 L1.576,8.993 Z" class="cls-1"/>
</svg>