<svg xmlns="http://www.w3.org/2000/svg" width="21" height="21" viewBox="0 0 21 21">
  <defs>
    <style>
      .cls-1 {
        fill: #514b49;
        fill-rule: evenodd;
      }
    </style>
  </defs>
  <path id="vkontakte" class="cls-1" d="M1607.1,7297h16.8a2.1,2.1,0,0,1,2.1,2.1v16.8a2.1,2.1,0,0,1-2.1,2.1h-16.8a2.1,2.1,0,0,1-2.1-2.1v-16.8A2.1,2.1,0,0,1,1607.1,7297Zm12.27,10.84a3.093,3.093,0,0,0-1.67-.87v-0.06a2.334,2.334,0,0,0,1.13-.92,2.5,2.5,0,0,0,.41-1.43,2.421,2.421,0,0,0-.29-1.22,2.089,2.089,0,0,0-.91-0.85,3.545,3.545,0,0,0-1.19-.39,14.579,14.579,0,0,0-1.88-.09H1611v10.98h4.5a7.422,7.422,0,0,0,1.93-.21,4.027,4.027,0,0,0,1.39-.69,3.08,3.08,0,0,0,.86-1.03,3.118,3.118,0,0,0,.31-1.44A2.521,2.521,0,0,0,1619.37,7307.84Zm-3.12-2.09a0.892,0.892,0,0,1-.47.42,1.582,1.582,0,0,1-.6.16c-0.19.01-.53,0.01-1.02,0.01h-0.35v-2.32h0.2c0.5,0,.88.01,1.13,0.01a1.8,1.8,0,0,1,.66.13,0.88,0.88,0,0,1,.44.41,1.24,1.24,0,0,1,.14.54A1.623,1.623,0,0,1,1616.25,7305.75Zm0.66,4.53a1.158,1.158,0,0,1-.56.48,2.548,2.548,0,0,1-.86.2c-0.29.01-.79,0.01-1.53,0.01h-0.15v-2.75h0.52c0.5,0,.91.01,1.2,0.01a2.456,2.456,0,0,1,.71.11,1.175,1.175,0,0,1,.85,1.23A1.388,1.388,0,0,1,1616.91,7310.28Z" transform="translate(-1605 -7297)"/>
</svg>
