<svg xmlns="http://www.w3.org/2000/svg" width="8" height="14" viewBox="0 0 8 14">
  <defs>
    <style>
      .cls-1 {
        fill: #2e6f6f;
        fill-rule: evenodd;
      }
    </style>
  </defs>
  <path id="_copy_2" data-name="&lt; copy 2" class="cls-1" d="M1611.55,916.012l1.46,1.553L1607.92,923l5.09,5.435-1.46,1.553L1605.01,923Z" transform="translate(-1605 -916)"/>
</svg>
