<svg xmlns="http://www.w3.org/2000/svg" width="12" height="15" viewBox="0 0 12 15">
  <metadata><?xpacket begin="﻿" id="W5M0MpCehiHzreSzNTczkc9d"?>
<x:xmpmeta xmlns:x="adobe:ns:meta/" x:xmptk="Adobe XMP Core 5.6-c138 79.159824, 2016/09/14-01:09:01        ">
   <rdf:RDF xmlns:rdf="http://www.w3.org/1999/02/22-rdf-syntax-ns#">
      <rdf:Description rdf:about=""/>
   </rdf:RDF>
</x:xmpmeta>
                                                                                                    
                                                                                                    
                                                                                                    
                                                                                                    
                                                                                                    
                                                                                                    
                                                                                                    
                                                                                                    
                                                                                                    
                                                                                                    
                                                                                                    
                                                                                                    
                                                                                                    
                                                                                                    
                                                                                                    
                                                                                                    
                                                                                                    
                                                                                                    
                                                                                                    
                                                                                                    
                           
<?xpacket end="w"?></metadata>
<defs>
    <style>
      .cls-1 {
        fill: #857871;
        fill-rule: evenodd;
      }
    </style>
  </defs>
  <path id="Rectangle_4_copy_103" data-name="Rectangle 4 copy 103" class="cls-1" d="M89.639,1551H98v8H86v-8h1.322l-0.788-1.29a3.7,3.7,0,0,1,1.47-5.2,4.142,4.142,0,0,1,5.486,1.4h0l0.5,0.82-1.739.95-0.5-.82a2.05,2.05,0,0,0-2.743-.7,1.849,1.849,0,0,0-.735,2.6ZM91,1556a1,1,0,1,0,2,0v-2a1,1,0,1,0-2,0v2Z" transform="translate(-86 -1544)"/>
</svg>
