<svg version="1.1" id="Layer_1" xmlns="http://www.w3.org/2000/svg" xmlns:xlink="http://www.w3.org/1999/xlink" x="0px" y="0px"
	 viewBox="0 0 24 21" enable-background="new 0 0 24 21" xml:space="preserve">
<path fill="#993333" d="M20,17v4H4v-4H0V4h4V0h16v4h4v13H20z M18,2H6v2h12V2z M18,13H6v6h12V13z M20.5,6
	C19.672,6,19,6.672,19,7.5S19.672,9,20.5,9S22,8.328,22,7.5S21.328,6,20.5,6z"/>
</svg>